<?xml version="1.0" encoding="UTF-8"?>
<CustomTab xmlns="http://soap.sforce.com/2006/04/metadata">
    <label>Dispute Resolution</label>
    <mobileReady>false</mobileReady>
    <motif>Custom46: Postage</motif>
    <page>Dispute_Resolution</page>
</CustomTab>
